<svg width="40" height="32" viewBox="0 0 40 32" fill="none" xmlns="http://www.w3.org/2000/svg">
<path d="M39 22H38V15.25C38 14.5 37.625 13.6875 37.0625 13.125L30.875 6.9375C30.3125 6.375 29.5 6 28.75 6H26V3C26 1.375 24.625 0 23 0H3C1.3125 0 0 1.375 0 3V23C0 24.6875 1.3125 26 3 26H4C4 29.3125 6.6875 32 10 32C13.3125 32 16 29.3125 16 26H24C24 29.3125 26.6875 32 30 32C33.3125 32 36 29.3125 36 26H39C39.5 26 40 25.5625 40 25V23C40 22.5 39.5 22 39 22ZM10 29C8.3125 29 7 27.6875 7 26C7 24.375 8.3125 23 10 23C11.625 23 13 24.375 13 26C13 27.6875 11.625 29 10 29ZM30 29C28.3125 29 27 27.6875 27 26C27 24.375 28.3125 23 30 23C31.625 23 33 24.375 33 26C33 27.6875 31.625 29 30 29ZM35 16H26V9H28.75L35 15.25V16Z" fill="#42484E"/>
</svg>
