<svg width="13" height="14" viewBox="0 0 13 14" fill="none" xmlns="http://www.w3.org/2000/svg">
<path d="M8.82031 7.25L12.3359 3.73438C12.793 3.3125 12.793 2.60938 12.3359 2.1875L11.5625 1.41406C11.1406 0.957031 10.4375 0.957031 10.0156 1.41406L6.5 4.92969L2.94922 1.41406C2.52734 0.957031 1.82422 0.957031 1.40234 1.41406L0.628906 2.1875C0.171875 2.60938 0.171875 3.3125 0.628906 3.73438L4.14453 7.25L0.628906 10.8008C0.171875 11.2227 0.171875 11.9258 0.628906 12.3477L1.40234 13.1211C1.82422 13.5781 2.52734 13.5781 2.94922 13.1211L6.5 9.60547L10.0156 13.1211C10.4375 13.5781 11.1406 13.5781 11.5625 13.1211L12.3359 12.3477C12.793 11.9258 12.793 11.2227 12.3359 10.8008L8.82031 7.25Z" fill="#E2E2E2"/>
</svg>
