<svg width="21" height="19" viewBox="0 0 21 19" fill="none" xmlns="http://www.w3.org/2000/svg">
<path d="M4.3125 9.25H16.6875C16.9688 9.25 17.25 9.00391 17.25 8.6875V0.8125C17.25 0.53125 16.9688 0.25 16.6875 0.25H12.75V4.75L10.5 3.625L8.25 4.75V0.25H4.3125C3.99609 0.25 3.75 0.53125 3.75 0.8125V8.6875C3.75 9.00391 3.99609 9.25 4.3125 9.25ZM20.2383 11.8164C19.8164 11.4297 19.1836 11.4648 18.7266 11.8164L15.4922 14.3828C15.1055 14.7344 14.5781 14.875 14.0859 14.875H9.9375C9.62109 14.875 9.375 14.6289 9.375 14.3125C9.375 14.0312 9.62109 13.75 9.9375 13.75H12.6797C13.2422 13.75 13.7695 13.3984 13.8398 12.8359C13.9453 12.1328 13.418 11.5 12.75 11.5H7.125C6.17578 11.5 5.22656 11.8516 4.48828 12.4492L2.87109 13.75H0.9375C0.621094 13.75 0.375 14.0312 0.375 14.3125V17.6875C0.375 18.0039 0.621094 18.25 0.9375 18.25H13.4531C13.9805 18.25 14.4727 18.1094 14.8594 17.7578L20.2031 13.5039C20.7305 13.082 20.7656 12.2734 20.2383 11.8164Z" fill="#42484E"/>
</svg>
