<svg width="16" height="19" viewBox="0 0 16 19" fill="none" xmlns="http://www.w3.org/2000/svg">
<path d="M7.99646 18.25C9.22693 18.25 10.2113 17.2656 10.2113 16H5.74646C5.74646 17.2656 6.73083 18.25 7.99646 18.25ZM15.5551 13.0117C14.8871 12.2734 13.5863 11.1836 13.5863 7.5625C13.5863 4.85547 11.6879 2.67578 9.0863 2.11328V1.375C9.0863 0.777344 8.59412 0.25 7.99646 0.25C7.36365 0.25 6.87146 0.777344 6.87146 1.375V2.11328C4.2699 2.67578 2.37146 4.85547 2.37146 7.5625C2.37146 11.1836 1.07068 12.2734 0.40271 13.0117C0.191772 13.2227 0.0863037 13.5039 0.12146 13.75C0.12146 14.3477 0.543335 14.875 1.24646 14.875H14.7113C15.4144 14.875 15.8363 14.3477 15.8715 13.75C15.8715 13.5039 15.766 13.2227 15.5551 13.0117Z" fill="white"/>
</svg>
