<svg width="10" height="6" viewBox="0 0 10 6" fill="none" xmlns="http://www.w3.org/2000/svg">
<path d="M9.14165 6C9.90946 6 10.2934 5.06866 9.73496 4.53134L5.58183 0.268657C5.26773 -0.089552 4.74423 -0.0895519 4.39523 0.268657L0.242105 4.53134C-0.281397 5.06866 0.102505 6 0.835409 6L9.14165 6Z" fill="#42484E"/>
</svg>
